<?xml version="1.0" encoding="UTF-8"?>
<svg width="24px" height="24px" viewBox="0 0 24 24" version="1.1" xmlns="http://www.w3.org/2000/svg" xmlns:xlink="http://www.w3.org/1999/xlink">
    <!-- Generator: Sketch 52.6 (67491) - http://www.bohemiancoding.com/sketch -->
    <title>Interface-Essential / Dashboard / pie-line-graph-desktop</title>
    <desc>Created with Sketch.</desc>
    <g id="Interface-Essential-/-Dashboard-/-pie-line-graph-desktop" stroke="none" stroke-width="1" fill="none" fill-rule="evenodd" stroke-linecap="round" stroke-linejoin="round">
        <g id="Group" stroke="#000000" stroke-width="1.5">
            <g id="pie-line-graph-desktop">
                <polygon id="Shape" points="14.998 22.32288 8.998 22.32288 9.748 18.00288 14.248 18.00288"></polygon>
                <path d="M6.748,22.32288 L17.248,22.32288" id="Shape"></path>
                <rect id="Rectangle-path" x="0.748" y="0.72288" width="22.5" height="17.28" rx="3"></rect>
                <path d="M0.748,10.80288 L4.718,6.99264 C4.85866608,6.85751399 5.04950435,6.78159371 5.2485,6.78159371 C5.44749565,6.78159371 5.63833392,6.85751399 5.779,6.99264 L7.718,8.85408 C7.85866608,8.98920601 8.04950435,9.06512629 8.2485,9.06512629 C8.44749565,9.06512629 8.63833392,8.98920601 8.779,8.85408 L12.748,5.04288" id="Shape"></path>
                <path d="M0.748,15.12288 L23.248,15.12288" id="Shape"></path>
                <path d="M14.248,9.36288 L14.248,11.52288" id="Shape"></path>
                <path d="M20.248,9.36288 L20.248,11.52288" id="Shape"></path>
                <path d="M17.248,7.20288 L17.248,11.52288" id="Shape"></path>
            </g>
        </g>
    </g>
</svg>