<?xml version="1.0" encoding="UTF-8"?>
<svg width="143px" height="100px" viewBox="0 0 143 100" version="1.1" xmlns="http://www.w3.org/2000/svg" xmlns:xlink="http://www.w3.org/1999/xlink">
    <!-- Generator: Sketch 52.2 (67145) - http://www.bohemiancoding.com/sketch -->
    <title>Computer</title>
    <desc>Created with Sketch.</desc>
    <g id="Page-1" stroke="none" stroke-width="1" fill="none" fill-rule="evenodd">
        <g id="Simple-Landing-Page" transform="translate(-340.000000, -868.000000)" fill="#4A4A4A">
            <g id="Three-Assets" transform="translate(280.000000, 868.000000)">
                <g id="Opensource">
                    <g id="Computer" transform="translate(60.000000, 0.000000)">
                        <path d="M125.629259,78.4448148 L125.629259,12.0748148 C125.629259,10.7651852 124.568889,9.70333333 123.25963,9.70333333 L18.9625926,9.70333333 C17.6533333,9.70333333 16.592963,10.7651852 16.592963,12.0748148 L16.592963,78.4448148 C16.592963,79.7540741 17.6533333,80.8144444 18.9625926,80.8144444 L123.25963,80.8144444 C124.568889,80.8144444 125.629259,79.7540741 125.629259,78.4448148 Z M21.3340741,76.0733333 L120.888148,76.0733333 L120.888148,14.4444444 L21.3340741,14.4444444 L21.3340741,76.0733333 Z" id="Fill-1"></path>
                        <path d="M139.852593,85.5555556 L132.679259,85.5555556 C134.247778,83.5155556 135.101111,81.017037 135.111481,78.4448148 L135.111481,12.0748148 C135.102593,5.53111111 129.801852,0.23 123.25963,0.222962963 L18.9625926,0.222962963 C12.4203704,0.23 7.11962963,5.53111111 7.11074074,12.0748148 L7.11074074,78.4448148 C7.12111111,81.017037 7.97444444,83.5155556 9.54296296,85.5555556 L2.36962963,85.5555556 C1.06185185,85.5555556 0,86.6174074 0,87.9251852 C0,99.777037 12.49,99.777037 16.592963,99.777037 L125.629259,99.777037 C129.732222,99.777037 142.222222,99.777037 142.222222,87.9251852 C142.222222,86.6174074 141.16037,85.5555556 139.852593,85.5555556 Z M11.8518519,78.4448148 L11.8518519,12.0748148 C11.8518519,8.14666667 15.0362963,4.96222222 18.9625926,4.96222222 L123.25963,4.96222222 C127.185926,4.96222222 130.37037,8.14666667 130.37037,12.0748148 L130.37037,78.4448148 C130.37037,82.3711111 127.185926,85.5555556 123.25963,85.5555556 L18.9625926,85.5555556 C15.0362963,85.5555556 11.8518519,82.3711111 11.8518519,78.4448148 Z M125.629259,95.0377778 L16.592963,95.0377778 C8.71518519,95.0377778 5.85518519,93.2148148 5.02740741,90.2966667 L137.194815,90.2966667 C136.367037,93.2148148 133.507037,95.0377778 125.629259,95.0377778 Z" id="Fill-2"></path>
                        <path d="M97.1844444,54.7411111 C102.421852,54.7411111 106.666667,50.4948148 106.666667,45.2588889 C106.666667,40.022963 102.421852,35.7785185 97.1844444,35.7785185 C91.9488889,35.7785185 87.7040741,40.022963 87.7040741,45.2588889 C87.7040741,50.4948148 91.9488889,54.7411111 97.1844444,54.7411111 Z M97.1844444,40.5177778 C99.8033333,40.5177778 101.925556,42.6418519 101.925556,45.2588889 C101.925556,47.8777778 99.8033333,50 97.1844444,50 C94.5674074,50 92.4451852,47.8777778 92.4451852,45.2588889 C92.4451852,42.6418519 94.5674074,40.5177778 97.1844444,40.5177778 Z" id="Fill-3"></path>
                        <path d="M28.4448148,68.9625926 L42.6662963,68.9625926 C43.9755556,68.9625926 45.0377778,67.9022222 45.0377778,66.592963 L45.0377778,61.8518519 L40.2966667,61.8518519 L40.2966667,64.2214815 L30.8144444,64.2214815 L30.8144444,48.6111111 L33.8803704,51.6751852 C34.3244444,52.1211111 34.9277778,52.3696296 35.5555556,52.3696296 L39.3140741,52.3696296 L43.3607407,56.4162963 C44.2866667,57.3407407 45.787037,57.3407407 46.712963,56.4162963 L50.7596296,52.3696296 L54.9159259,58.4274074 C55.3818519,59.0481481 56.1125926,59.4140741 56.8896296,59.4140741 C57.6648148,59.4140741 58.3955556,59.0481481 58.8614815,58.4274074 L61.9966667,53.7211111 L64.6948148,56.4162963 C65.6207407,57.3407407 67.1211111,57.3407407 68.047037,56.4162963 L72.0918519,52.3696296 L79.6107407,52.3696296 C83.0151852,60.7840741 91.9040741,65.6062963 100.812963,63.872963 C109.722222,62.1381481 116.154444,54.3359259 116.154444,45.2588889 C116.154444,36.1833333 109.722222,28.3796296 100.812963,26.6462963 C91.9040741,24.9118519 83.0151852,29.7337037 79.6107407,38.1481481 L35.5555556,38.1481481 C34.9277778,38.1481481 34.3244444,38.3985185 33.8803704,38.8425926 L30.8144444,41.9066667 L30.8144444,26.2962963 L40.2966667,26.2962963 L40.2966667,33.407037 L45.0377778,33.407037 L45.0377778,23.9266667 C45.0377778,22.617037 43.9755556,21.5551852 42.6662963,21.5551852 L28.4448148,21.5551852 C27.1355556,21.5551852 26.0733333,22.617037 26.0733333,23.9266667 L26.0733333,66.592963 C26.0733333,67.9022222 27.1355556,68.9625926 28.4448148,68.9625926 Z M36.5362963,42.8892593 L81.2888889,42.8892593 C82.3377778,42.8892593 83.2611111,42.1992593 83.5603704,41.1951852 C85.5785185,34.427037 92.2555556,30.1662963 99.2433333,31.1862963 C106.22963,32.2062963 111.410741,38.1974074 111.410741,45.2588889 C111.410741,52.3207407 106.22963,58.312963 99.2433333,59.3314815 C92.2555556,60.3514815 85.5785185,56.0907407 83.5603704,49.3244444 C83.2611111,48.3188889 82.3377778,47.6303704 81.2888889,47.6303704 L71.1111111,47.6303704 C70.4833333,47.6303704 69.88,47.8788889 69.4359259,48.3248148 L66.37,51.3888889 L63.3059259,48.3248148 C62.8037037,47.8211111 62.1037037,47.5722222 61.3962963,47.6418519 C60.69,47.7111111 60.0522222,48.0933333 59.657037,48.6833333 L56.8896296,52.8444444 L54.1203704,48.6922222 C53.6818519,48.0296296 52.9425926,47.6303704 52.1485185,47.6303704 L49.777037,47.6303704 C49.1492593,47.6303704 48.5459259,47.8788889 48.1018519,48.3248148 L45.0377778,51.3888889 L41.9718519,48.3248148 C41.5277778,47.8788889 40.9244444,47.6303704 40.2966667,47.6303704 L36.5362963,47.6303704 L34.1666667,45.2588889 L36.5362963,42.8892593 Z" id="Fill-4"></path>
                    </g>
                </g>
            </g>
        </g>
    </g>
</svg>